Sensor at x=98246, y=1908027: closest beacon is at x=1076513, y=2000000
Sensor at x=1339369, y=2083853: closest beacon is at x=1076513, y=2000000
Sensor at x=679177, y=3007305: closest beacon is at x=1076513, y=2000000
Sensor at x=20262, y=3978297: closest beacon is at x=13166, y=4136840
Sensor at x=3260165, y=2268955: closest beacon is at x=4044141, y=2290104
Sensor at x=2577675, y=3062584: closest beacon is at x=2141091, y=2828176
Sensor at x=3683313, y=2729137: closest beacon is at x=4044141, y=2290104
Sensor at x=1056412, y=370641: closest beacon is at x=1076513, y=2000000
Sensor at x=2827280, y=1827095: closest beacon is at x=2757345, y=1800840
Sensor at x=1640458, y=3954524: closest beacon is at x=2141091, y=2828176
Sensor at x=2139884, y=1162189: closest beacon is at x=2757345, y=1800840
Sensor at x=3777450, y=3714504: closest beacon is at x=3355953, y=3271922
Sensor at x=1108884, y=2426713: closest beacon is at x=1076513, y=2000000
Sensor at x=2364307, y=20668: closest beacon is at x=2972273, y=-494417
Sensor at x=3226902, y=2838842: closest beacon is at x=3355953, y=3271922
Sensor at x=22804, y=3803886: closest beacon is at x=13166, y=4136840
Sensor at x=2216477, y=2547945: closest beacon is at x=2141091, y=2828176
Sensor at x=1690953, y=2203555: closest beacon is at x=1076513, y=2000000
Sensor at x=3055156, y=3386812: closest beacon is at x=3355953, y=3271922
Sensor at x=3538996, y=719130: closest beacon is at x=2972273, y=-494417
Sensor at x=2108918, y=2669413: closest beacon is at x=2141091, y=2828176
Sensor at x=3999776, y=2044283: closest beacon is at x=4044141, y=2290104
Sensor at x=2184714, y=2763072: closest beacon is at x=2141091, y=2828176
Sensor at x=2615462, y=2273553: closest beacon is at x=2757345, y=1800840

